…
``` r
# install.packages("pak")
pak::pak("m-muecke/ifo")
```

## Usage

``` r
library(ifo)

climate <- ifo_business()
climate
#> # A tibble: 1,386 × 6
#>   yearmonth  uncertainty economic_expansion indicator   series  value
#>   <date>           <dbl>              <dbl> <chr>       <chr>   <dbl>
#> 1 2005-01-01          NA               83.1 climate     index    92.2
#> 2 2005-01-01          NA               83.1 situation   index    87.4
#> 3 2005-01-01          NA               83.1 expectation index    97.2
#> 4 2005-01-01          NA               83.1 climate     balance   1.5
#> 5 2005-01-01          NA               83.1 situation   balance  -0.9
#> # ℹ 1,381 more rows
```
…
