Return ifo climate data — ifo_climate • ifo
…
    References

    Grimme C, Lehmann R, Nöller M (2018).
“Das ifo Importklima – ein erster Frühindikator für die Prognose der deutschen Importe.”
ifo Schnelldienst, 71(12), 27–32.

Grimme, Christian, Lehmann, Robert, Nöller, Marvin (2021).
“Forecasting imports with information from abroad.”
Economic Modelling, 98, 109–117.

    Examples

# \donttest{
ifo_climate("import")
#> # A tibble: 358 × 2
#>    yearmonth   climate
#>    <date>        <dbl>
#>  1 1995-01-01  0.321  
#>  2 1995-02-01  0.508  
#>  3 1995-03-01  0.124  
#>  4 1995-04-01  0.277  
#>  5 1995-05-01  0.368  
#>  6 1995-06-01 -0.0408 
#>  7 1995-07-01  0.00796
#>  8 1995-08-01 -0.0608 
#>  9 1995-09-01 -0.246  
#> 10 1995-10-01 -0.440  
#> # ℹ 348 more rows
…
